15
23 
23 8 
1 26 22 
19 29 7 24 
9 3 24 22 26 
16 15 0 27 11 8 
1 10 24 6 20 24 13 
7 6 12 23 10 6 20 3 
17 12 23 0 0 5 25 17 2 
7 20 25 7 15 15 24 29 0 19 
17 7 10 25 16 7 2 15 2 23 8 
7 2 25 7 5 1 4 24 25 21 20 4 
9 14 5 19 1 26 26 0 23 9 21 14 11 
19 7 7 23 8 7 15 21 3 27 9 15 18 3 
6 10 20 22 12 21 4 4 21 9 28 24 4 21 10 
